{
  "id": "rogue-trader",
  "title": "Rogue Trader",
  "description": "Character sheet for Cubicle 7's Warhammer 40,000: Rogue Trader game.  Based on Moo Man et all's Dark Heresy 2E system.",
  "version": "1.1.8",
  "compatibility": {
    "minimum": "10",
    "verified": "11"
  },
  "templateVersion": 2,
  "authors":[
    {
    "name": "JeansenVaars, Moo Man, fredthedeadhead, Perfectro, Ogre92"
    }
  ],
  "scripts": [],
  "esmodules": [
    "script/common/hooks.js"
  ],
  "styles": [
    "style/common/variable.css",
    "style/common/helper.css",
    "style/common/override.css",
    "style/chat/chat.css",
    "style/dialog/dialog.css",
    "style/sheet/item.css",
    "style/sheet/mental-disorder.css",
    "style/sheet/malignancy.css",
    "style/sheet/mutation.css",
    "style/sheet/talent.css",
    "style/sheet/trait.css",
    "style/sheet/special-ability.css",
    "style/sheet/psychic-power.css",
    "style/sheet/critical-injury.css",
    "style/sheet/weapon.css",
    "style/sheet/armour.css",
    "style/sheet/gear.css",
    "style/sheet/drug.css",
    "style/sheet/tool.css",
    "style/sheet/cybernetic.css",
    "style/sheet/weapon-modification.css",
    "style/sheet/ammunition.css",
    "style/sheet/force-field.css",
    "style/sheet/actor/actor.css",
    "style/sheet/actor/acolyte.css",
    "style/sheet/actor/npc.css",
    "style/sheet/actor/limited-sheet.css",
    "style/sheet/actor/tab/stats.css",
    "style/sheet/actor/tab/npc-stats.css",
    "style/sheet/actor/tab/combat.css",
    "style/sheet/actor/tab/abilities.css",
    "style/sheet/actor/tab/psychic-powers.css",
    "style/sheet/actor/tab/gear.css",
    "style/sheet/actor/tab/progression.css",
    "style/sheet/actor/tab/notes.css"
  ],
  "packs": [],
  "languages": [
    {
      "lang": "en",
      "name": "English",
      "path": "lang/en.json"
    }
  ],
  "gridDistance": 1,
  "gridUnits": "m",
  "primaryTokenAttribute": "wounds",
  "secondaryTokenAttribute": null,
  "url": "https://gitlab.com/ogre92/rogue-trader",
  "socket": true,
  "manifest": "https://gitlab.com/ogre92/rogue-trader/raw/main/system.json",
  "download": "https://gitlab.com/ogre92/rogue-trader/-/archive/main/rogue-trader-main.zip",
  "license": "LICENSE.txt"
}
